Génération de tableaux de bord PMSI avec pmeasyr • dimRactivite
…
La première étape consiste à scanner le dossier contenant les archives afin de dresser la liste de remontées disponibles ce qui produit un tableaux de données référençant l’ensemble des informations utiles sur les archives et leur contenu. Ce tableau appelé fichiers_genrsa sera utilisé par les autres fonctions d’imports comme reférentiel pour décrire les données disponibles.

Liste des fichiers présents dans le dossier racine

fichiers_genrsa <- dimRactivite:::scan_path()

Analyse des fichiers et vérification de la présence des fichiers en fonction de leur extentions (ext imco + .zip + .RData)

Les fichiers sont ensuite analysés afin de préparer la création (ou non) des fichiers .RData. On vérifie la présence dans les fichiers zippés en entrée et en sortie de GENRSA de l’ensemble des fichiers nécessaires à la facturation et à l’analyse de l’activité en lisant l’extension des fichiers de l’archive. Ce second tableau de données plus synthétique servira également de base pour les autres fonctions.

remontees_dispo <- dimRactivite:::analyse_fichiers_remontees(fichiers_genrsa)

remontees_dispo%>%arrange(annee,mois,finess)
#> # A tibble: 92 x 13
#>    finess annee mois    rss   rsa   tra   ano   ium  diap  porg   pie
#>    <chr>  <chr> <chr> <dbl> <dbl> <dbl> <dbl> <dbl> <dbl> <dbl> <dbl>
#>  1 75010… 2013  12        1     1     1     1     1     1     1     0
#>  2 75010… 2013  12        1     1     1     1     1     1     1     0
#>  3 75010… 2014  12        1     1     1     1     1     1     1     0
#>  4 75010… 2014  12        1     1     1     1     1     1     1     0
#>  5 75010… 2015  12        1     1     1     1     1     1     1     0
#>  6 75010… 2015  12        1     1     1     1     1     1     1     0
#>  7 75010… 2016  1         1     1     1     1     1     1     1     0
#>  8 75010… 2016  1         1     1     1     1     1     1     1     0
#>  9 75010… 2016  10        1     1     1     1     1     1     1     0
#> 10 75010… 2016  10        1     1     1     1     1     1     1     0
#> # … with 82 more rows, and 2 more variables: manquants <dbl>, RData <dbl>
…
